<?xml version="1.0" encoding="utf-8"?>
<!-- Generator: Adobe Illustrator 21.0.0, SVG Export Plug-In . SVG Version: 6.00 Build 0)  -->
<svg version="1.1" id="Слой_1" xmlns="http://www.w3.org/2000/svg" xmlns:xlink="http://www.w3.org/1999/xlink" x="0px" y="0px"
	 viewBox="0 0 23.3 23.8" style="enable-background:new 0 0 23.3 23.8;" xml:space="preserve">
<style type="text/css">
	.st0{fill:#009BAD;}
</style>
<path class="st0" d="M11.7,23.2c6.2,0,11.3-5.1,11.3-11.3S17.9,0.5,11.7,0.5S0.3,5.6,0.3,11.8S5.4,23.2,11.7,23.2z M11.7,1.7
	c5.6,0,10.2,4.6,10.2,10.2S17.3,22,11.7,22S1.5,17.5,1.5,11.8S6,1.7,11.7,1.7z"/>
<g>
	<g id="check">
		<polygon class="st0" points="10.8,14.3 8.6,12.1 7.9,12.9 10.8,15.8 17,9.6 16.2,8.8 		"/>
	</g>
</g>
</svg>
