<?xml version="1.0" encoding="utf-8"?>
<!-- Generator: Adobe Illustrator 21.0.0, SVG Export Plug-In . SVG Version: 6.00 Build 0)  -->
<svg version="1.1" id="Слой_1" xmlns="http://www.w3.org/2000/svg" xmlns:xlink="http://www.w3.org/1999/xlink" x="0px" y="0px"
	 viewBox="0 0 15 7.1" style="enable-background:new 0 0 15 7.1;" xml:space="preserve">
<style type="text/css">
	.st0{fill:#5a5e5f;}
</style>
<path class="st0" d="M11.8,0H0v7.1h11.8L15,3.6L11.8,0z M0.9,0.9h3.2v5.3H0.9V0.9z M11.4,6.2H5.1V0.9h6.3l2.4,2.6L11.4,6.2z"/>
</svg>
