<?xml version="1.0" encoding="utf-8"?>
<!-- Generator: Adobe Illustrator 21.0.0, SVG Export Plug-In . SVG Version: 6.00 Build 0)  -->
<svg version="1.1" id="Слой_1" xmlns="http://www.w3.org/2000/svg" xmlns:xlink="http://www.w3.org/1999/xlink" x="0px" y="0px"
	 viewBox="0 0 65.5 68.4" style="enable-background:new 0 0 65.5 68.4;" xml:space="preserve">
<style type="text/css">
	.st0{fill:#009BAD;}
</style>
<g>
	<path class="st0" d="M55.8,26.3v-2.6c0-6.3-2.2-12.1-6.2-16.4c-4.1-4.4-9.8-6.9-15.9-6.9h-2.2c-6.2,0-11.8,2.4-15.9,6.9
		c-4,4.3-6.2,10.1-6.2,16.4v2.6c-4.9,0.3-8.7,4.4-8.7,9.3v4.1c0,5.2,4.2,9.4,9.4,9.4h5.3c0.9,0,1.7-0.8,1.7-1.7V28
		c0-0.9-0.8-1.7-1.7-1.7h-2.5v-2.6c0-11.3,8.1-19.8,18.7-19.8h2.2c10.7,0,18.7,8.5,18.7,19.8v2.6h-2.5c-0.9,0-1.7,0.8-1.7,1.7v19.4
		c0,0.9,0.8,1.7,1.7,1.7h2.4c-0.7,8.9-6.9,11-9.7,11.5c-0.8-2.4-3.1-4.2-5.7-4.2h-4.3c-3.3,0-6,2.7-6,6c0,3.3,2.7,6,6,6h4.3
		c2.8,0,5.1-1.9,5.8-4.4c1.4-0.2,3.6-0.7,5.8-2c3.1-1.8,6.8-5.5,7.3-13c4.9-0.3,8.8-4.4,8.8-9.3v-4.1C64.5,30.7,60.6,26.6,55.8,26.3
		z M13.5,45.6H9.9C6.6,45.6,4,43,4,39.7v-4.1c0-3.3,2.7-5.9,5.9-5.9h3.6V45.6z M36.8,65h-4.3c-1.4,0-2.6-1.2-2.6-2.6
		c0-1.4,1.2-2.6,2.6-2.6h4.3c1.4,0,2.6,1.2,2.6,2.6C39.4,63.8,38.2,65,36.8,65z M61.1,39.7c0,3.3-2.7,5.9-5.9,5.9h-3.6V29.7h3.6
		c3.3,0,5.9,2.7,5.9,5.9V39.7z"/>
</g>
</svg>
